{
	"process_id" : 94544,
	"version" : "2019.4.1f1",
	"app_path" : "/Applications/Unity/Hub/Editor/2019.4.1f1/Unity.app",
	"app_contents_path" : "/Applications/Unity/Hub/Editor/2019.4.1f1/Unity.app/Contents"
}